[gd_scene load_steps=3 format=2]

[ext_resource path="res://addons/GhodBase.RunInstance/PidContainer.gd" type="Script" id=1]
[ext_resource path="res://addons/GhodBase.RunInstance/return.png" type="Texture" id=2]

[node name="PidContainer" type="HBoxContainer"]

anchor_left = 0.0
anchor_top = 0.0
anchor_right = 1.0
anchor_bottom = 0.0
margin_bottom = 25.0
rect_pivot_offset = Vector2( 0, 0 )
rect_clip_content = false
mouse_filter = 1
mouse_default_cursor_shape = 0
size_flags_horizontal = 1
size_flags_vertical = 1
alignment = 0
script = ExtResource( 1 )

[node name="lblPid" type="Label" parent="." index="0"]

anchor_left = 0.0
anchor_top = 0.0
anchor_right = 0.0
anchor_bottom = 0.0
margin_top = 6.0
margin_right = 32.0
margin_bottom = 20.0
rect_pivot_offset = Vector2( 0, 0 )
rect_clip_content = false
mouse_filter = 2
mouse_default_cursor_shape = 0
size_flags_horizontal = 1
size_flags_vertical = 4
text = "5555"
percent_visible = 1.0
lines_skipped = 0
max_lines_visible = -1

[node name="btnKill" type="Button" parent="." index="1"]

anchor_left = 0.0
anchor_top = 0.0
anchor_right = 0.0
anchor_bottom = 0.0
margin_left = 36.0
margin_right = 68.0
margin_bottom = 26.0
rect_pivot_offset = Vector2( 0, 0 )
rect_clip_content = false
focus_mode = 2
mouse_filter = 0
mouse_default_cursor_shape = 0
size_flags_horizontal = 1
size_flags_vertical = 1
toggle_mode = false
enabled_focus_mode = 2
shortcut = null
group = null
text = "Kill"
flat = false
align = 1

[node name="btnReRun" type="Button" parent="." index="2"]

anchor_left = 0.0
anchor_top = 0.0
anchor_right = 0.0
anchor_bottom = 0.0
margin_left = 72.0
margin_right = 104.0
margin_bottom = 26.0
rect_pivot_offset = Vector2( 0, 0 )
rect_clip_content = false
focus_mode = 2
mouse_filter = 0
mouse_default_cursor_shape = 0
size_flags_horizontal = 1
size_flags_vertical = 1
toggle_mode = false
enabled_focus_mode = 2
shortcut = null
group = null
icon = ExtResource( 2 )
flat = false
align = 1

[node name="btnViewOutput" type="Button" parent="." index="3"]

visible = false
anchor_left = 0.0
anchor_top = 0.0
anchor_right = 0.0
anchor_bottom = 0.0
margin_left = 72.0
margin_right = 129.0
margin_bottom = 20.0
rect_pivot_offset = Vector2( 0, 0 )
rect_clip_content = false
focus_mode = 2
mouse_filter = 0
mouse_default_cursor_shape = 0
size_flags_horizontal = 1
size_flags_vertical = 1
toggle_mode = false
enabled_focus_mode = 2
shortcut = null
group = null
text = "Output"
flat = false
align = 1

[connection signal="pressed" from="btnKill" to="." method="_on_btnKill_pressed"]

[connection signal="pressed" from="btnReRun" to="." method="_on_btnReRun_pressed"]

[connection signal="pressed" from="btnViewOutput" to="." method="_on_btnViewOutput_pressed"]


